EESchema Schematic File Version 2
LIBS:power
LIBS:device
LIBS:transistors
LIBS:conn
LIBS:linear
LIBS:regul
LIBS:74xx
LIBS:cmos4000
LIBS:adc-dac
LIBS:memory
LIBS:xilinx
LIBS:special
LIBS:microcontrollers
LIBS:dsp
LIBS:microchip
LIBS:analog_switches
LIBS:motorola
LIBS:texas
LIBS:intel
LIBS:audio
LIBS:interface
LIBS:digital-audio
LIBS:philips
LIBS:display
LIBS:cypress
LIBS:siliconi
LIBS:opto
LIBS:atmel
LIBS:contrib
LIBS:valves
LIBS:esp-12
LIBS:analog
LIBS:lm2596
LIBS:pir
LIBS:mosfet
LIBS:project-cache
EELAYER 25 0
EELAYER END
$Descr A4 11693 8268
encoding utf-8
Sheet 1 1
Title ""
Date ""
Rev ""
Comp ""
Comment1 ""
Comment2 ""
Comment3 ""
Comment4 ""
$EndDescr
$Comp
L ESP-12 D1
U 1 1 55D2BFF0
P 9200 1550
F 0 "D1" H 9200 2050 60  0000 C CNN
F 1 "ESP-12" H 9200 1050 60  0000 C CNN
F 2 "Local:ESP-12-DIP" H 9200 1550 60  0001 C CNN
F 3 "" H 9200 1550 60  0000 C CNN
	1    9200 1550
	1    0    0    -1  
$EndComp
$Comp
L 74HC4052A D2
U 1 1 55D2C790
P 8700 3400
F 0 "D2" H 8700 4050 60  0000 C CNN
F 1 "74HC4052A" H 8700 2850 60  0000 C CNN
F 2 "Local:SOEIAJ-16" H 8700 3400 60  0001 C CNN
F 3 "" H 8700 3400 60  0000 C CNN
	1    8700 3400
	1    0    0    -1  
$EndComp
$Comp
L GND #PWR01
U 1 1 55D2CB01
P 10400 2000
F 0 "#PWR01" H 10400 1750 60  0001 C CNN
F 1 "GND" H 10400 1850 60  0000 C CNN
F 2 "" H 10400 2000 60  0000 C CNN
F 3 "" H 10400 2000 60  0000 C CNN
	1    10400 2000
	1    0    0    -1  
$EndComp
$Comp
L +3V3 #PWR02
U 1 1 55D2CB1F
P 7500 1100
F 0 "#PWR02" H 7500 950 60  0001 C CNN
F 1 "+3V3" H 7500 1240 60  0000 C CNN
F 2 "" H 7500 1100 60  0000 C CNN
F 3 "" H 7500 1100 60  0000 C CNN
	1    7500 1100
	1    0    0    -1  
$EndComp
Text GLabel 10400 1200 2    60   Input ~ 0
UART_TX
Text GLabel 10400 1300 2    60   Input ~ 0
UART_RX
Text GLabel 8000 1300 0    60   Input ~ 0
ADC
Text GLabel 9300 2900 2    60   Input ~ 0
ADC
$Comp
L GND #PWR03
U 1 1 55D2CDD8
P 10400 6000
F 0 "#PWR03" H 10400 5750 60  0001 C CNN
F 1 "GND" H 10400 5850 60  0000 C CNN
F 2 "" H 10400 6000 60  0000 C CNN
F 3 "" H 10400 6000 60  0000 C CNN
	1    10400 6000
	1    0    0    -1  
$EndComp
$Comp
L R R18
U 1 1 55D2CED4
P 10400 5050
F 0 "R18" V 10480 5050 50  0000 C CNN
F 1 "10K" V 10407 5051 50  0000 C CNN
F 2 "Resistors_SMD:R_0603" V 10330 5050 30  0001 C CNN
F 3 "" H 10400 5050 30  0000 C CNN
	1    10400 5050
	-1   0    0    1   
$EndComp
$Comp
L R R19
U 1 1 55D2CFDD
P 10800 5050
F 0 "R19" V 10880 5050 50  0000 C CNN
F 1 "100" V 10807 5051 50  0000 C CNN
F 2 "Resistors_SMD:R_0603" V 10730 5050 30  0001 C CNN
F 3 "" H 10800 5050 30  0000 C CNN
	1    10800 5050
	-1   0    0    1   
$EndComp
$Comp
L C C10
U 1 1 55D2D03F
P 10400 5700
F 0 "C10" H 10450 5800 50  0000 L CNN
F 1 "100n" H 10450 5600 50  0000 L CNN
F 2 "Capacitors_SMD:C_0603" H 10438 5550 30  0001 C CNN
F 3 "" H 10400 5700 60  0000 C CNN
	1    10400 5700
	-1   0    0    -1  
$EndComp
$Comp
L CP2 C13
U 1 1 55D2D1FA
P 5850 6400
F 0 "C13" H 5900 6500 50  0000 L CNN
F 1 "47u" H 5900 6300 50  0000 L CNN
F 2 "Capacitors_ThroughHole:C_Radial_D5_L11_P2.5" H 5888 6250 30  0001 C CNN
F 3 "" H 5850 6400 60  0000 C CNN
	1    5850 6400
	-1   0    0    -1  
$EndComp
Text GLabel 8000 1200 0    60   Input ~ 0
~RESET
Text GLabel 10300 5400 0    60   Input ~ 0
~RESET
Text GLabel 10800 5500 3    60   Input ~ 0
MCU_EN
$Comp
L +3V3 #PWR04
U 1 1 55D2DABA
P 10400 4600
F 0 "#PWR04" H 10400 4450 60  0001 C CNN
F 1 "+3V3" H 10400 4740 60  0000 C CNN
F 2 "" H 10400 4600 60  0000 C CNN
F 3 "" H 10400 4600 60  0000 C CNN
	1    10400 4600
	1    0    0    -1  
$EndComp
$Comp
L +3V3 #PWR05
U 1 1 55D2DC1E
P 5850 6000
F 0 "#PWR05" H 5850 5850 60  0001 C CNN
F 1 "+3V3" H 5850 6140 60  0000 C CNN
F 2 "" H 5850 6000 60  0000 C CNN
F 3 "" H 5850 6000 60  0000 C CNN
	1    5850 6000
	1    0    0    -1  
$EndComp
$Comp
L GND #PWR06
U 1 1 55D2E01B
P 9300 3900
F 0 "#PWR06" H 9300 3650 60  0001 C CNN
F 1 "GND" H 9300 3750 60  0000 C CNN
F 2 "" H 9300 3900 60  0000 C CNN
F 3 "" H 9300 3900 60  0000 C CNN
	1    9300 3900
	1    0    0    -1  
$EndComp
$Comp
L +3V3 #PWR07
U 1 1 55D2E0A1
P 9700 2800
F 0 "#PWR07" H 9700 2650 60  0001 C CNN
F 1 "+3V3" H 9700 2940 60  0000 C CNN
F 2 "" H 9700 2800 60  0000 C CNN
F 3 "" H 9700 2800 60  0000 C CNN
	1    9700 2800
	1    0    0    -1  
$EndComp
Text GLabel 8000 1700 0    60   Input ~ 0
ADC_A
Text GLabel 8000 1600 0    60   Input ~ 0
ADC_B
Text GLabel 9300 3200 2    60   Input ~ 0
ADC_A
Text GLabel 9300 3300 2    60   Input ~ 0
ADC_B
Text GLabel 10400 1600 2    60   Input ~ 0
FLASH
Text GLabel 8100 2900 0    60   Input ~ 0
THERMO_SENSE
Text GLabel 8100 3000 0    60   Input ~ 0
MOTION_SENSE
Text GLabel 8100 3100 0    60   Input ~ 0
PHOTO_SENSE
NoConn ~ 8100 3200
NoConn ~ 8100 3500
NoConn ~ 8100 3600
NoConn ~ 8100 3700
NoConn ~ 8100 3800
NoConn ~ 9300 3000
$Comp
L GND #PWR08
U 1 1 55D2FC17
P 10400 4000
F 0 "#PWR08" H 10400 3750 60  0001 C CNN
F 1 "GND" H 10400 3850 60  0000 C CNN
F 2 "" H 10400 4000 60  0000 C CNN
F 3 "" H 10400 4000 60  0000 C CNN
	1    10400 4000
	1    0    0    -1  
$EndComp
$Comp
L CONN_01X02 P2
U 1 1 55D2FC67
P 10700 3850
F 0 "P2" H 10700 4000 50  0000 C CNN
F 1 "FLASH" V 10800 3850 50  0000 C CNN
F 2 "Pin_Headers:Pin_Header_Straight_1x02" H 10700 3850 60  0001 C CNN
F 3 "" H 10700 3850 60  0000 C CNN
	1    10700 3850
	1    0    0    1   
$EndComp
Text GLabel 10400 3800 0    60   Input ~ 0
FLASH
$Comp
L LD1117S33CTR U2
U 1 1 55D30201
P 5350 6150
F 0 "U2" H 5350 6400 40  0000 C CNN
F 1 "LD1117S33CTR" H 5350 6350 40  0000 C CNN
F 2 "TO_SOT_Packages_SMD:SOT-223" H 5350 6250 40  0001 C CNN
F 3 "" H 5350 6150 60  0000 C CNN
	1    5350 6150
	1    0    0    -1  
$EndComp
$Comp
L GND #PWR09
U 1 1 55D3024C
P 5350 6800
F 0 "#PWR09" H 5350 6550 60  0001 C CNN
F 1 "GND" H 5350 6650 60  0000 C CNN
F 2 "" H 5350 6800 60  0000 C CNN
F 3 "" H 5350 6800 60  0000 C CNN
	1    5350 6800
	1    0    0    -1  
$EndComp
$Comp
L +5V #PWR010
U 1 1 55D3055F
P 4850 5850
F 0 "#PWR010" H 4850 5700 60  0001 C CNN
F 1 "+5V" H 4850 5990 60  0000 C CNN
F 2 "" H 4850 5850 60  0000 C CNN
F 3 "" H 4850 5850 60  0000 C CNN
	1    4850 5850
	1    0    0    -1  
$EndComp
$Comp
L CP2 C12
U 1 1 55D307BC
P 4850 6400
F 0 "C12" H 4900 6500 50  0000 L CNN
F 1 "220u" H 4900 6300 50  0000 L CNN
F 2 "Capacitors_ThroughHole:C_Radial_D8_L13_P3.8" H 4888 6250 30  0001 C CNN
F 3 "" H 4850 6400 60  0000 C CNN
	1    4850 6400
	1    0    0    -1  
$EndComp
$Comp
L C C11
U 1 1 55D3092E
P 4600 6400
F 0 "C11" H 4650 6500 50  0000 L CNN
F 1 "100n" H 4650 6300 50  0000 L CNN
F 2 "Capacitors_SMD:C_0603" H 4638 6250 30  0001 C CNN
F 3 "" H 4600 6400 60  0000 C CNN
	1    4600 6400
	-1   0    0    -1  
$EndComp
$Comp
L C C14
U 1 1 55D30A8A
P 6100 6400
F 0 "C14" H 6150 6500 50  0000 L CNN
F 1 "100n" H 6150 6300 50  0000 L CNN
F 2 "Capacitors_SMD:C_0603" H 6138 6250 30  0001 C CNN
F 3 "" H 6100 6400 60  0000 C CNN
	1    6100 6400
	1    0    0    -1  
$EndComp
$Comp
L LM2596 U3
U 1 1 55D30ECF
P 2250 6200
F 0 "U3" H 2250 6300 60  0000 C CNN
F 1 "LM2596" H 2250 6450 60  0000 C CNN
F 2 "TO_SOT_Packages_SMD:TO-263-5Lead_HandSoldering" H 2250 6100 60  0001 C CNN
F 3 "" H 2250 6100 60  0000 C CNN
	1    2250 6200
	1    0    0    -1  
$EndComp
$Comp
L GND #PWR011
U 1 1 55D30FD0
P 2000 7000
F 0 "#PWR011" H 2000 6750 60  0001 C CNN
F 1 "GND" H 2000 6850 60  0000 C CNN
F 2 "" H 2000 7000 60  0000 C CNN
F 3 "" H 2000 7000 60  0000 C CNN
	1    2000 7000
	1    0    0    -1  
$EndComp
$Comp
L CONN_01X02 P4
U 1 1 55D31079
P 1100 6150
F 0 "P4" H 1100 6300 50  0000 C CNN
F 1 "PWR" V 1200 6150 50  0000 C CNN
F 2 "Connect:AK300-2" H 1100 6150 60  0001 C CNN
F 3 "" H 1100 6150 60  0000 C CNN
	1    1100 6150
	-1   0    0    1   
$EndComp
$Comp
L DIODESCH D4
U 1 1 55D31A77
P 3900 6400
F 0 "D4" H 3900 6500 50  0000 C CNN
F 1 "SS14" H 3900 6300 50  0000 C CNN
F 2 "Diodes_SMD:DO-214BA" H 3900 6400 60  0001 C CNN
F 3 "" H 3900 6400 60  0000 C CNN
	1    3900 6400
	0    -1   -1   0   
$EndComp
$Comp
L INDUCTOR_SMALL L1
U 1 1 55D32087
P 4250 6100
F 0 "L1" H 4250 6200 50  0000 C CNN
F 1 "33u" H 4250 6050 50  0000 C CNN
F 2 "Choke_Toroid_ThroughHole:Choke_Toroid_6,5x13mm_Vertical" H 4250 6100 60  0001 C CNN
F 3 "" H 4250 6100 60  0000 C CNN
	1    4250 6100
	1    0    0    -1  
$EndComp
$Comp
L R R24
U 1 1 55D32C37
P 3300 6450
F 0 "R24" V 3380 6450 50  0000 C CNN
F 1 "10K" V 3307 6451 50  0000 C CNN
F 2 "Resistors_SMD:R_0603" V 3230 6450 30  0001 C CNN
F 3 "" H 3300 6450 30  0000 C CNN
	1    3300 6450
	-1   0    0    1   
$EndComp
$Comp
L R R23
U 1 1 55D32DB4
P 2800 6900
F 0 "R23" V 2880 6900 50  0000 C CNN
F 1 "3K3" V 2807 6901 50  0000 C CNN
F 2 "Resistors_SMD:R_0603" V 2730 6900 30  0001 C CNN
F 3 "" H 2800 6900 30  0000 C CNN
	1    2800 6900
	0    -1   -1   0   
$EndComp
$Comp
L C C15
U 1 1 55D336DD
P 3600 6500
F 0 "C15" H 3650 6600 50  0000 L CNN
F 1 "15n" H 3650 6400 50  0000 L CNN
F 2 "Capacitors_SMD:C_0603" H 3638 6350 30  0001 C CNN
F 3 "" H 3600 6500 60  0000 C CNN
	1    3600 6500
	-1   0    0    -1  
$EndComp
Text Notes 3350 7550 0    60   ~ 0
Q1: Vout = Vref * (1.0 + R2/R1);\nQ2: solve(Q1, R2);\nP1: [ Vin=40, /* 20..40 V */ Vout=5, Iout=1, Vref=1.23 ];\nR: Q2, P1, R1=3.3e3;\n=> R2=10e3;
Text GLabel 8000 1800 0    60   Input ~ 0
~LED_ON
$Comp
L VPP #PWR012
U 1 1 55D37C5C
P 1400 6000
F 0 "#PWR012" H 1400 5850 60  0001 C CNN
F 1 "VPP" H 1400 6150 60  0000 C CNN
F 2 "" H 1400 6000 60  0000 C CNN
F 3 "" H 1400 6000 60  0000 C CNN
	1    1400 6000
	1    0    0    -1  
$EndComp
$Comp
L CONN_01X02 P3
U 1 1 55D3872F
P 9500 4950
F 0 "P3" H 9500 5100 50  0000 C CNN
F 1 "LED" V 9600 4950 50  0000 C CNN
F 2 "Connect:AK300-2" H 9500 4950 60  0001 C CNN
F 3 "" H 9500 4950 60  0000 C CNN
	1    9500 4950
	1    0    0    1   
$EndComp
$Comp
L Photores R4
U 1 1 55D3C029
P 1400 2050
F 0 "R4" V 1480 2050 50  0000 C CNN
F 1 "PhotoRes" V 1610 2050 50  0000 C TNN
F 2 "Local:PHOTORES_5" V 1330 2050 30  0001 C CNN
F 3 "" H 1400 2050 30  0000 C CNN
	1    1400 2050
	1    0    0    -1  
$EndComp
Text GLabel 1000 1600 1    60   Input ~ 0
PHOTO_SENSE
$Comp
L R R1
U 1 1 55D3C8F0
P 1400 1350
F 0 "R1" V 1480 1350 50  0000 C CNN
F 1 "22K" V 1407 1351 50  0000 C CNN
F 2 "Resistors_SMD:R_0603" V 1330 1350 30  0001 C CNN
F 3 "" H 1400 1350 30  0000 C CNN
	1    1400 1350
	-1   0    0    1   
$EndComp
Text Notes 5100 1850 0    60   ~ 0
THERMISTOR (maxima):\n\ndegC(t) := t + 273.15;\nQ1: T = 1 / (1 / T0 + 1 / beta * log(R / R0));\nQ2: solve(Q1, R);\nP1: [ beta = 3450, T0 = degC(24), R0 = 10e3 ];\nR1: Q2, P1, T = degC(-35);\nR2: Q2, P1, T = degC(55);\n=>\nR1 = 177497\nR2 = 2447
$Comp
L R R3
U 1 1 55D3CCC9
P 1000 2050
F 0 "R3" V 1080 2050 50  0000 C CNN
F 1 "10K" V 1007 2051 50  0000 C CNN
F 2 "Resistors_SMD:R_0603" V 930 2050 30  0001 C CNN
F 3 "" H 1000 2050 30  0000 C CNN
	1    1000 2050
	-1   0    0    1   
$EndComp
$Comp
L GND #PWR013
U 1 1 55D3DD3D
P 1400 2500
F 0 "#PWR013" H 1400 2250 60  0001 C CNN
F 1 "GND" H 1400 2350 60  0000 C CNN
F 2 "" H 1400 2500 60  0000 C CNN
F 3 "" H 1400 2500 60  0000 C CNN
	1    1400 2500
	1    0    0    -1  
$EndComp
$Comp
L +3V3 #PWR014
U 1 1 55D3DEE0
P 1400 1000
F 0 "#PWR014" H 1400 850 60  0001 C CNN
F 1 "+3V3" H 1400 1140 60  0000 C CNN
F 2 "" H 1400 1000 60  0000 C CNN
F 3 "" H 1400 1000 60  0000 C CNN
	1    1400 1000
	1    0    0    -1  
$EndComp
Text GLabel 4100 1600 1    60   Input ~ 0
THERMO_SENSE
$Comp
L R R2
U 1 1 55D3ED30
P 4500 1350
F 0 "R2" V 4580 1350 50  0000 C CNN
F 1 "22K" V 4507 1351 50  0000 C CNN
F 2 "Resistors_SMD:R_0603" V 4430 1350 30  0001 C CNN
F 3 "" H 4500 1350 30  0000 C CNN
	1    4500 1350
	-1   0    0    1   
$EndComp
$Comp
L R R5
U 1 1 55D3ED36
P 4100 2050
F 0 "R5" V 4180 2050 50  0000 C CNN
F 1 "10K" V 4107 2051 50  0000 C CNN
F 2 "Resistors_SMD:R_0603" V 4030 2050 30  0001 C CNN
F 3 "" H 4100 2050 30  0000 C CNN
	1    4100 2050
	-1   0    0    1   
$EndComp
$Comp
L GND #PWR015
U 1 1 55D3ED43
P 4500 2500
F 0 "#PWR015" H 4500 2250 60  0001 C CNN
F 1 "GND" H 4500 2350 60  0000 C CNN
F 2 "" H 4500 2500 60  0000 C CNN
F 3 "" H 4500 2500 60  0000 C CNN
	1    4500 2500
	1    0    0    -1  
$EndComp
$Comp
L +3V3 #PWR016
U 1 1 55D3ED49
P 4500 1000
F 0 "#PWR016" H 4500 850 60  0001 C CNN
F 1 "+3V3" H 4500 1140 60  0000 C CNN
F 2 "" H 4500 1000 60  0000 C CNN
F 3 "" H 4500 1000 60  0000 C CNN
	1    4500 1000
	1    0    0    -1  
$EndComp
$Comp
L THERMISTOR TH1
U 1 1 55D3EDF3
P 4500 2050
F 0 "TH1" V 4600 2100 50  0000 C CNN
F 1 "10K" V 4400 2050 50  0000 C BNN
F 2 "Resistors_SMD:R_0603" H 4500 2050 60  0001 C CNN
F 3 "" H 4500 2050 60  0000 C CNN
	1    4500 2050
	-1   0    0    -1  
$EndComp
Text Notes 8350 2600 0    60   ~ 0
ANALOG_MUXER
Text Notes 8900 900  0    60   ~ 0
MCU_AND_WIFI
Text Notes 3850 700  0    60   ~ 0
TEMPERATURE_SENSOR
Text Notes 900  700  0    60   ~ 0
LIGHT_SENSOR
Text Notes 2000 2650 0    60   ~ 0
* RESISTIVE SENSOR (ngspice)\n\nV1 VDD GND DC(3.3)\n* R1 - serial with sensor\nR1 VDD OUT 22e3\n* R2 - parallel with sensor\nR2 OUT GND 10e3\n* Rt - thermistor resistance\n*Rt OUT GND 180e3\n*Rt OUT GND 2.4e3\n* Rp - photo-resistor resistance\n*Rp OUT GND 150\n*Rp OUT GND 500e3\n\n.control\n  options nopage\n  tran 1mS 2mS 1mS\n.endc\n\n.end\n
Text Notes 3650 5700 0    60   ~ 0
POWER_SUPPLY
Text Notes 7650 5250 0    60   ~ 0
LIGHT_SWITCH
$Comp
L R R14
U 1 1 55D55CF3
P 1600 4450
F 0 "R14" V 1680 4450 50  0000 C CNN
F 1 "47K" V 1607 4451 50  0000 C CNN
F 2 "Resistors_SMD:R_0603" V 1530 4450 30  0001 C CNN
F 3 "" H 1600 4450 30  0000 C CNN
	1    1600 4450
	-1   0    0    1   
$EndComp
$Comp
L C C5
U 1 1 55D564E9
P 1900 4450
F 0 "C5" H 1950 4550 50  0000 L CNN
F 1 "10n" H 1950 4350 50  0000 L CNN
F 2 "Capacitors_SMD:C_0603" H 1938 4300 30  0001 C CNN
F 3 "" H 1900 4450 60  0000 C CNN
	1    1900 4450
	-1   0    0    -1  
$EndComp
$Comp
L GND #PWR017
U 1 1 55D58B7D
P 1600 4900
F 0 "#PWR017" H 1600 4650 60  0001 C CNN
F 1 "GND" H 1600 4750 60  0000 C CNN
F 2 "" H 1600 4900 60  0000 C CNN
F 3 "" H 1600 4900 60  0000 C CNN
	1    1600 4900
	1    0    0    -1  
$EndComp
$Comp
L R R12
U 1 1 55D59B34
P 1650 3950
F 0 "R12" V 1730 3950 50  0000 C CNN
F 1 "22K" V 1657 3951 50  0000 C CNN
F 2 "Resistors_SMD:R_0603" V 1580 3950 30  0001 C CNN
F 3 "" H 1650 3950 30  0000 C CNN
	1    1650 3950
	0    -1   -1   0   
$EndComp
$Comp
L CP2 C6
U 1 1 55D5A6A3
P 2200 4450
F 0 "C6" H 2250 4550 50  0000 L CNN
F 1 "47u" H 2250 4350 50  0000 L CNN
F 2 "Capacitors_ThroughHole:C_Radial_D5_L11_P2.5" H 2238 4300 30  0001 C CNN
F 3 "" H 2200 4450 60  0000 C CNN
	1    2200 4450
	-1   0    0    -1  
$EndComp
$Comp
L R R8
U 1 1 55D5D07B
P 2000 3600
F 0 "R8" V 2080 3600 50  0000 C CNN
F 1 "10K" V 2007 3601 50  0000 C CNN
F 2 "Resistors_SMD:R_0603" V 1930 3600 30  0001 C CNN
F 3 "" H 2000 3600 30  0000 C CNN
	1    2000 3600
	-1   0    0    -1  
$EndComp
$Comp
L +3V3 #PWR018
U 1 1 55D5D081
P 2000 3250
F 0 "#PWR018" H 2000 3100 60  0001 C CNN
F 1 "+3V3" H 2000 3390 60  0000 C CNN
F 2 "" H 2000 3250 60  0000 C CNN
F 3 "" H 2000 3250 60  0000 C CNN
	1    2000 3250
	1    0    0    -1  
$EndComp
$Comp
L R R9
U 1 1 55D5D97A
P 2300 3750
F 0 "R9" V 2380 3750 50  0000 C CNN
F 1 "22K" V 2307 3751 50  0000 C CNN
F 2 "Resistors_SMD:R_0603" V 2230 3750 30  0001 C CNN
F 3 "" H 2300 3750 30  0000 C CNN
	1    2300 3750
	-1   0    0    -1  
$EndComp
$Comp
L R R10
U 1 1 55D60E8B
P 2500 3850
F 0 "R10" V 2580 3850 50  0000 C CNN
F 1 "22K" V 2507 3851 50  0000 C CNN
F 2 "Resistors_SMD:R_0603" V 2430 3850 30  0001 C CNN
F 3 "" H 2500 3850 30  0000 C CNN
	1    2500 3850
	-1   0    0    -1  
$EndComp
$Comp
L CP2 C7
U 1 1 55D60FCD
P 2500 4450
F 0 "C7" H 2550 4550 50  0000 L CNN
F 1 "47u" H 2550 4350 50  0000 L CNN
F 2 "Capacitors_ThroughHole:C_Radial_D5_L11_P2.5" H 2538 4300 30  0001 C CNN
F 3 "" H 2500 4450 60  0000 C CNN
	1    2500 4450
	-1   0    0    -1  
$EndComp
$Comp
L R R11
U 1 1 55D65EEF
P 3100 3850
F 0 "R11" V 3180 3850 50  0000 C CNN
F 1 "1M" V 3107 3851 50  0000 C CNN
F 2 "Resistors_SMD:R_0603" V 3030 3850 30  0001 C CNN
F 3 "" H 3100 3850 30  0000 C CNN
	1    3100 3850
	-1   0    0    -1  
$EndComp
$Comp
L C C2
U 1 1 55D667D0
P 3400 3850
F 0 "C2" H 3450 3950 50  0000 L CNN
F 1 "10n" H 3450 3750 50  0000 L CNN
F 2 "Capacitors_SMD:C_0603" H 3438 3700 30  0001 C CNN
F 3 "" H 3400 3850 60  0000 C CNN
	1    3400 3850
	-1   0    0    -1  
$EndComp
$Comp
L CP2 C4
U 1 1 55D67C28
P 3350 4400
F 0 "C4" H 3400 4500 50  0000 L CNN
F 1 "22u" H 3400 4300 50  0000 L CNN
F 2 "Capacitors_ThroughHole:C_Radial_D5_L11_P2.5" H 3388 4250 30  0001 C CNN
F 3 "" H 3350 4400 60  0000 C CNN
	1    3350 4400
	0    -1   1    0   
$EndComp
$Comp
L R R16
U 1 1 55D687AD
P 3100 4950
F 0 "R16" V 3180 4950 50  0000 C CNN
F 1 "2K" V 3107 4951 50  0000 C CNN
F 2 "Resistors_SMD:R_0603" V 3030 4950 30  0001 C CNN
F 3 "" H 3100 4950 30  0000 C CNN
	1    3100 4950
	-1   0    0    -1  
$EndComp
$Comp
L C C9
U 1 1 55D68978
P 3400 4950
F 0 "C9" H 3450 5050 50  0000 L CNN
F 1 "100n" H 3450 4850 50  0000 L CNN
F 2 "Capacitors_SMD:C_0603" H 3438 4800 30  0001 C CNN
F 3 "" H 3400 4950 60  0000 C CNN
	1    3400 4950
	-1   0    0    -1  
$EndComp
$Comp
L R R17
U 1 1 55D6A42A
P 3700 4950
F 0 "R17" V 3780 4950 50  0000 C CNN
F 1 "6K8" V 3707 4951 50  0000 C CNN
F 2 "Resistors_SMD:R_0603" V 3630 4950 30  0001 C CNN
F 3 "" H 3700 4950 30  0000 C CNN
	1    3700 4950
	-1   0    0    1   
$EndComp
$Comp
L R R13
U 1 1 55D6C5BA
P 3900 4250
F 0 "R13" V 3980 4250 50  0000 C CNN
F 1 "1M" V 3907 4251 50  0000 C CNN
F 2 "Resistors_SMD:R_0603" V 3830 4250 30  0001 C CNN
F 3 "" H 3900 4250 30  0000 C CNN
	1    3900 4250
	-1   0    0    -1  
$EndComp
$Comp
L C C3
U 1 1 55D6C77C
P 4200 4250
F 0 "C3" H 4250 4350 50  0000 L CNN
F 1 "10n" H 4250 4150 50  0000 L CNN
F 2 "Capacitors_SMD:C_0603" H 4238 4100 30  0001 C CNN
F 3 "" H 4200 4250 60  0000 C CNN
	1    4200 4250
	-1   0    0    -1  
$EndComp
Text GLabel 3400 3000 0    60   Input ~ 0
MOTION_SENSE
$Comp
L +3V3 #PWR019
U 1 1 55D70CE3
P 4400 4400
F 0 "#PWR019" H 4400 4250 60  0001 C CNN
F 1 "+3V3" H 4400 4540 60  0000 C CNN
F 2 "" H 4400 4400 60  0000 C CNN
F 3 "" H 4400 4400 60  0000 C CNN
	1    4400 4400
	1    0    0    -1  
$EndComp
$Comp
L +3V3 #PWR020
U 1 1 55D70D2D
P 7000 3100
F 0 "#PWR020" H 7000 2950 60  0001 C CNN
F 1 "+3V3" H 7000 3240 60  0000 C CNN
F 2 "" H 7000 3100 60  0000 C CNN
F 3 "" H 7000 3100 60  0000 C CNN
	1    7000 3100
	1    0    0    -1  
$EndComp
$Comp
L R R15
U 1 1 55D71BCB
P 7200 4650
F 0 "R15" V 7280 4650 50  0000 C CNN
F 1 "1M" V 7207 4651 50  0000 C CNN
F 2 "Resistors_SMD:R_0603" V 7130 4650 30  0001 C CNN
F 3 "" H 7200 4650 30  0000 C CNN
	1    7200 4650
	-1   0    0    -1  
$EndComp
$Comp
L GND #PWR021
U 1 1 55D71CFF
P 7100 5100
F 0 "#PWR021" H 7100 4850 60  0001 C CNN
F 1 "GND" H 7100 4950 60  0000 C CNN
F 2 "" H 7100 5100 60  0000 C CNN
F 3 "" H 7100 5100 60  0000 C CNN
	1    7100 5100
	1    0    0    -1  
$EndComp
NoConn ~ 7000 3500
NoConn ~ 7000 3700
NoConn ~ 7000 3800
NoConn ~ 7000 4000
NoConn ~ 7000 4100
NoConn ~ 4400 4100
NoConn ~ 4400 3200
Text Notes 4750 5000 0    60   ~ 0
PASSIVE INFRA-RED MOTION SENSOR\n(USE INPUT PRE-AMPLIFIER ONLY)
$Comp
L C C8
U 1 1 55D77241
P 2800 4450
F 0 "C8" H 2850 4550 50  0000 L CNN
F 1 "10n" H 2850 4350 50  0000 L CNN
F 2 "Capacitors_SMD:C_0603" H 2838 4300 30  0001 C CNN
F 3 "" H 2800 4450 60  0000 C CNN
	1    2800 4450
	-1   0    0    -1  
$EndComp
$Comp
L C C1
U 1 1 55D7B272
P 2800 3850
F 0 "C1" H 2850 3950 50  0000 L CNN
F 1 "5n" H 2850 3750 50  0000 L CNN
F 2 "Capacitors_SMD:C_0603" H 2838 3700 30  0001 C CNN
F 3 "" H 2800 3850 60  0000 C CNN
	1    2800 3850
	-1   0    0    -1  
$EndComp
$Comp
L R R7
U 1 1 55D81E86
P 3850 3200
F 0 "R7" V 3930 3200 50  0000 C CNN
F 1 "22K" V 3857 3201 50  0000 C CNN
F 2 "Resistors_SMD:R_0603" V 3780 3200 30  0001 C CNN
F 3 "" H 3850 3200 30  0000 C CNN
	1    3850 3200
	0    -1   -1   0   
$EndComp
$Comp
L R R6
U 1 1 55D81FDF
P 3150 3200
F 0 "R6" V 3230 3200 50  0000 C CNN
F 1 "10K" V 3157 3201 50  0000 C CNN
F 2 "Resistors_SMD:R_0603" V 3080 3200 30  0001 C CNN
F 3 "" H 3150 3200 30  0000 C CNN
	1    3150 3200
	0    -1   -1   0   
$EndComp
$Comp
L GND #PWR022
U 1 1 55D826B7
P 2800 3200
F 0 "#PWR022" H 2800 2950 60  0001 C CNN
F 1 "GND" H 2800 3050 60  0000 C CNN
F 2 "" H 2800 3200 60  0000 C CNN
F 3 "" H 2800 3200 60  0000 C CNN
	1    2800 3200
	0    1    1    0   
$EndComp
$Comp
L CONN_01X04 P1
U 1 1 55D874D8
P 10700 3050
F 0 "P1" H 10700 3300 50  0000 C CNN
F 1 "UART" V 10800 3050 50  0000 C CNN
F 2 "Pin_Headers:Pin_Header_Straight_1x04" H 10700 3050 60  0001 C CNN
F 3 "" H 10700 3050 60  0000 C CNN
	1    10700 3050
	1    0    0    1   
$EndComp
$Comp
L GND #PWR023
U 1 1 55D88161
P 10400 3300
F 0 "#PWR023" H 10400 3050 60  0001 C CNN
F 1 "GND" H 10400 3150 60  0000 C CNN
F 2 "" H 10400 3300 60  0000 C CNN
F 3 "" H 10400 3300 60  0000 C CNN
	1    10400 3300
	1    0    0    -1  
$EndComp
$Comp
L +3V3 #PWR024
U 1 1 55D8861F
P 10400 2800
F 0 "#PWR024" H 10400 2650 60  0001 C CNN
F 1 "+3V3" H 10400 2940 60  0000 C CNN
F 2 "" H 10400 2800 60  0000 C CNN
F 3 "" H 10400 2800 60  0000 C CNN
	1    10400 2800
	1    0    0    -1  
$EndComp
Text GLabel 10300 3100 0    60   Input ~ 0
UART_TX
Text GLabel 10300 2900 0    60   Input ~ 0
UART_RX
NoConn ~ 10400 1700
Wire Wire Line
	10300 1900 10400 1900
Wire Wire Line
	10400 1800 10400 2000
Wire Wire Line
	7500 1100 7500 1900
Wire Wire Line
	7500 1900 8100 1900
Wire Wire Line
	10300 1200 10400 1200
Wire Wire Line
	10300 1300 10400 1300
Wire Wire Line
	8100 1300 8000 1300
Wire Wire Line
	8100 1200 8000 1200
Wire Wire Line
	9300 2900 9200 2900
Wire Wire Line
	8100 2900 8200 2900
Wire Wire Line
	8200 3000 8100 3000
Wire Wire Line
	8200 3100 8100 3100
Wire Wire Line
	10800 4800 10800 4700
Wire Wire Line
	10800 4700 10400 4700
Wire Wire Line
	10400 4600 10400 4800
Wire Wire Line
	10800 5300 10800 5500
Wire Wire Line
	10400 5300 10400 5500
Wire Wire Line
	10400 5900 10400 6000
Wire Wire Line
	10300 5400 10400 5400
Connection ~ 10400 5400
Connection ~ 10400 4700
Wire Wire Line
	5850 6700 5850 6600
Wire Wire Line
	5850 6000 5850 6200
Wire Wire Line
	9300 3800 9200 3800
Wire Wire Line
	9300 3400 9300 3900
Wire Wire Line
	9200 3700 9300 3700
Connection ~ 9300 3800
Wire Wire Line
	9200 3600 9700 3600
Wire Wire Line
	9700 3600 9700 2800
Wire Wire Line
	9200 3400 9300 3400
Connection ~ 9300 3700
Wire Wire Line
	9200 3200 9300 3200
Wire Wire Line
	9200 3300 9300 3300
Wire Wire Line
	10300 1400 10400 1400
Wire Wire Line
	10300 1500 10400 1500
Wire Wire Line
	10300 1600 10400 1600
Wire Wire Line
	10300 1700 10400 1700
Wire Wire Line
	10300 1800 10400 1800
Wire Wire Line
	8200 3200 8100 3200
Wire Wire Line
	9200 3000 9300 3000
Wire Wire Line
	8200 3500 8100 3500
Wire Wire Line
	8200 3600 8100 3600
Wire Wire Line
	8200 3700 8100 3700
Wire Wire Line
	8200 3800 8100 3800
Wire Wire Line
	10400 4000 10400 3900
Wire Wire Line
	10400 3900 10500 3900
Wire Wire Line
	10500 3800 10400 3800
Wire Wire Line
	5350 6400 5350 6800
Wire Wire Line
	5750 6100 6100 6100
Connection ~ 5850 6100
Wire Wire Line
	3900 6700 6100 6700
Wire Wire Line
	4500 6100 4950 6100
Wire Wire Line
	4850 5850 4850 6200
Connection ~ 4850 6100
Wire Wire Line
	4850 6600 4850 6700
Connection ~ 5350 6700
Wire Wire Line
	4600 6700 4600 6600
Connection ~ 4850 6700
Wire Wire Line
	4600 6100 4600 6200
Wire Wire Line
	6100 6100 6100 6200
Wire Wire Line
	6100 6700 6100 6600
Connection ~ 5850 6700
Wire Wire Line
	2000 6800 2000 7000
Wire Wire Line
	1300 6100 1500 6100
Wire Wire Line
	1300 6200 1400 6200
Wire Wire Line
	1400 6200 1400 6900
Wire Wire Line
	1400 6900 2550 6900
Connection ~ 2000 6900
Connection ~ 4600 6100
Wire Wire Line
	2450 6900 2450 6800
Wire Wire Line
	3000 6100 4000 6100
Wire Wire Line
	3900 6100 3900 6200
Connection ~ 3900 6100
Wire Wire Line
	3900 6700 3900 6600
Connection ~ 4600 6700
Connection ~ 2450 6900
Wire Wire Line
	3300 6900 3050 6900
Wire Wire Line
	3300 6700 3300 6900
Wire Wire Line
	3300 5900 4850 5900
Wire Wire Line
	3300 5900 3300 6200
Connection ~ 4850 5900
Wire Wire Line
	3000 6350 3100 6350
Wire Wire Line
	3100 6350 3100 6800
Wire Wire Line
	3100 6800 3600 6800
Connection ~ 3300 6800
Wire Wire Line
	3600 6300 3600 5900
Connection ~ 3600 5900
Wire Wire Line
	3600 6800 3600 6700
Wire Wire Line
	8100 1800 8000 1800
Wire Wire Line
	8100 1700 8000 1700
Wire Wire Line
	8100 1600 8000 1600
Wire Wire Line
	8100 1500 8000 1500
Wire Wire Line
	1400 6100 1400 6000
Connection ~ 1400 6100
Wire Wire Line
	1000 1700 1400 1700
Wire Wire Line
	1400 1600 1400 1800
Wire Wire Line
	1000 1600 1000 1800
Connection ~ 1400 1700
Wire Wire Line
	1000 2300 1000 2400
Wire Wire Line
	1000 2400 1400 2400
Wire Wire Line
	1400 2300 1400 2500
Connection ~ 1400 2400
Wire Wire Line
	1400 1100 1400 1000
Wire Wire Line
	4100 1700 4500 1700
Wire Wire Line
	4500 1600 4500 1800
Wire Wire Line
	4100 1600 4100 1800
Connection ~ 4500 1700
Wire Wire Line
	4100 2300 4100 2400
Wire Wire Line
	4100 2400 4500 2400
Wire Wire Line
	4500 2300 4500 2500
Connection ~ 4500 2400
Wire Wire Line
	4500 1100 4500 1000
Wire Wire Line
	1300 4250 1400 4250
Wire Wire Line
	1400 4250 1400 4800
Wire Wire Line
	1300 4100 2300 4100
Wire Wire Line
	1600 4100 1600 4200
Wire Wire Line
	1900 4100 1900 4250
Connection ~ 1600 4100
Wire Wire Line
	1600 4700 1600 4900
Wire Wire Line
	1400 4800 2800 4800
Wire Wire Line
	1900 4800 1900 4650
Connection ~ 1600 4800
Wire Wire Line
	1400 3950 1300 3950
Wire Wire Line
	1900 3950 2200 3950
Wire Wire Line
	2200 3950 2200 4250
Wire Wire Line
	2200 4800 2200 4650
Connection ~ 1900 4800
Wire Wire Line
	2000 3950 2000 3850
Connection ~ 2000 3950
Wire Wire Line
	2000 3350 2000 3250
Connection ~ 1900 4100
Wire Wire Line
	2300 3400 4500 3400
Wire Wire Line
	4500 3200 4400 3200
Wire Wire Line
	2500 4800 2500 4650
Connection ~ 2200 4800
Wire Wire Line
	2500 3500 4500 3500
Wire Wire Line
	2300 3400 2300 3500
Wire Wire Line
	2300 4100 2300 4000
Wire Wire Line
	2500 4250 2500 4100
Wire Wire Line
	2500 3600 2500 3500
Wire Wire Line
	3100 3500 3100 3600
Connection ~ 3100 3500
Wire Wire Line
	3400 3500 3400 3650
Connection ~ 3400 3500
Wire Wire Line
	3100 4100 3100 4200
Wire Wire Line
	3100 4200 3600 4200
Wire Wire Line
	3400 4050 3400 4200
Wire Wire Line
	4500 3600 3600 3600
Wire Wire Line
	3600 3600 3600 4400
Connection ~ 3400 4200
Wire Wire Line
	3400 4750 3400 4600
Wire Wire Line
	3400 4600 3100 4600
Wire Wire Line
	3100 4400 3100 4700
Wire Wire Line
	3100 5200 3100 5300
Wire Wire Line
	3100 5300 3700 5300
Wire Wire Line
	3400 5300 3400 5150
Wire Wire Line
	3100 4400 3150 4400
Connection ~ 3100 4600
Wire Wire Line
	3600 4400 3550 4400
Connection ~ 3600 4200
Connection ~ 3400 5300
Wire Wire Line
	3700 5300 3700 5200
Wire Wire Line
	4500 3800 3700 3800
Wire Wire Line
	3700 3800 3700 4700
Wire Wire Line
	3900 3900 4500 3900
Wire Wire Line
	3900 3900 3900 4000
Wire Wire Line
	4200 3200 4200 4050
Connection ~ 4200 3900
Wire Wire Line
	4200 4600 4200 4450
Wire Wire Line
	3700 4600 4200 4600
Wire Wire Line
	3900 4600 3900 4500
Connection ~ 3700 4600
Connection ~ 3900 4600
Wire Wire Line
	4500 4100 4400 4100
Wire Wire Line
	4500 4500 4400 4500
Wire Wire Line
	4200 3200 4100 3200
Wire Wire Line
	6900 3200 7000 3200
Wire Wire Line
	7000 3200 7000 3100
Wire Wire Line
	4400 4500 4400 4400
Wire Wire Line
	6900 4300 7200 4300
Wire Wire Line
	6900 4500 7000 4500
Wire Wire Line
	7000 4500 7000 5000
Wire Wire Line
	7200 4300 7200 4400
Wire Wire Line
	7200 5000 7200 4900
Wire Wire Line
	7000 5000 7200 5000
Wire Wire Line
	7100 5100 7100 5000
Connection ~ 7100 5000
Wire Wire Line
	6900 3700 7000 3700
Wire Wire Line
	6900 3800 7000 3800
Wire Wire Line
	6900 4000 7000 4000
Wire Wire Line
	6900 4100 7000 4100
Wire Wire Line
	6900 3500 7000 3500
Wire Wire Line
	2800 4050 2800 4250
Wire Wire Line
	2800 3500 2800 3650
Wire Wire Line
	2800 4800 2800 4650
Connection ~ 2500 4800
Connection ~ 2800 3500
Connection ~ 1000 1700
Connection ~ 4100 1700
Wire Wire Line
	3400 3200 3600 3200
Wire Wire Line
	2900 3200 2800 3200
Wire Wire Line
	3400 3000 3500 3000
Wire Wire Line
	3500 3000 3500 3200
Connection ~ 3500 3200
Wire Wire Line
	10500 3200 10400 3200
Wire Wire Line
	10400 3200 10400 3300
Wire Wire Line
	10500 3000 10400 3000
Wire Wire Line
	10400 3000 10400 2800
Wire Wire Line
	10500 2900 10300 2900
Wire Wire Line
	10500 3100 10300 3100
Wire Wire Line
	8100 1400 8000 1400
Text GLabel 8000 1400 0    60   Input ~ 0
MCU_EN
$Comp
L D203B U1
U 1 1 55D450AC
P 900 4100
F 0 "U1" H 900 4400 60  0000 C CNN
F 1 "D203B" H 900 3800 60  0000 C CNN
F 2 "Local:D203B" H 950 4075 60  0001 C CNN
F 3 "" H 950 4075 60  0000 C CNN
	1    900  4100
	1    0    0    -1  
$EndComp
$Comp
L BISS0001 D3
U 1 1 55D452CB
P 5700 3850
F 0 "D3" H 5700 4650 60  0000 C CNN
F 1 "BISS0001" H 5700 3050 60  0000 C CNN
F 2 "Housings_SOIC:SOIC-16_3.9x9.9mm_Pitch1.27mm" H 6100 3900 60  0001 C CNN
F 3 "" H 6100 3900 60  0000 C CNN
	1    5700 3850
	1    0    0    -1  
$EndComp
$Comp
L VPP #PWR025
U 1 1 55D5ED70
P 9200 4800
F 0 "#PWR025" H 9200 4650 60  0001 C CNN
F 1 "VPP" H 9200 4950 60  0000 C CNN
F 2 "" H 9200 4800 60  0000 C CNN
F 3 "" H 9200 4800 60  0000 C CNN
	1    9200 4800
	1    0    0    -1  
$EndComp
Wire Wire Line
	9200 5900 9200 5500
Wire Wire Line
	9200 5100 9200 5000
Wire Wire Line
	9200 5000 9300 5000
Wire Wire Line
	9300 4900 9200 4900
Wire Wire Line
	9200 4900 9200 4800
Wire Wire Line
	8800 5200 8800 5400
Wire Wire Line
	8800 5300 8900 5300
Text GLabel 7700 5600 0    60   Input ~ 0
~LED_ON
$Comp
L R R21
U 1 1 55D5F7F1
P 8800 4950
F 0 "R21" V 8880 4950 50  0000 C CNN
F 1 "10K" V 8807 4951 50  0000 C CNN
F 2 "Resistors_SMD:R_0603" V 8730 4950 30  0001 C CNN
F 3 "" H 8800 4950 30  0000 C CNN
	1    8800 4950
	-1   0    0    1   
$EndComp
$Comp
L GND #PWR026
U 1 1 55D5FA2B
P 9000 6000
F 0 "#PWR026" H 9000 5750 60  0001 C CNN
F 1 "GND" H 9000 5850 60  0000 C CNN
F 2 "" H 9000 6000 60  0000 C CNN
F 3 "" H 9000 6000 60  0000 C CNN
	1    9000 6000
	1    0    0    -1  
$EndComp
Wire Wire Line
	8800 5800 8800 5900
Wire Wire Line
	8800 5900 9200 5900
Wire Wire Line
	9000 5900 9000 6000
Connection ~ 9000 5900
Connection ~ 8800 5300
$Comp
L BC817-40 Q2
U 1 1 55D63237
P 8700 5600
F 0 "Q2" H 8700 5451 40  0000 R CNN
F 1 "MMBT3904" V 8950 5750 40  0000 R CNN
F 2 "TO_SOT_Packages_SMD:SOT-23" H 8500 5702 29  0001 C CNN
F 3 "" H 8700 5600 60  0000 C CNN
	1    8700 5600
	1    0    0    -1  
$EndComp
$Comp
L R R22
U 1 1 55D63539
P 8050 5600
F 0 "R22" V 8130 5600 50  0000 C CNN
F 1 "4K7" V 8057 5601 50  0000 C CNN
F 2 "Resistors_SMD:R_0603" V 7980 5600 30  0001 C CNN
F 3 "" H 8050 5600 30  0000 C CNN
	1    8050 5600
	0    -1   -1   0   
$EndComp
$Comp
L +5V #PWR027
U 1 1 55D63950
P 8600 4500
F 0 "#PWR027" H 8600 4350 60  0001 C CNN
F 1 "+5V" H 8600 4640 60  0000 C CNN
F 2 "" H 8600 4500 60  0000 C CNN
F 3 "" H 8600 4500 60  0000 C CNN
	1    8600 4500
	1    0    0    -1  
$EndComp
Wire Wire Line
	8800 4600 8800 4700
Wire Wire Line
	8300 5600 8500 5600
Wire Wire Line
	7800 5600 7700 5600
$Comp
L R R20
U 1 1 55D66D5B
P 8400 4950
F 0 "R20" V 8480 4950 50  0000 C CNN
F 1 "100K" V 8407 4951 50  0000 C CNN
F 2 "Resistors_SMD:R_0603" V 8330 4950 30  0001 C CNN
F 3 "" H 8400 4950 30  0000 C CNN
	1    8400 4950
	-1   0    0    1   
$EndComp
Wire Wire Line
	8400 5200 8400 5600
Connection ~ 8400 5600
Wire Wire Line
	8400 4700 8400 4600
Wire Wire Line
	8400 4600 8800 4600
Wire Wire Line
	8600 4500 8600 4600
Connection ~ 8600 4600
$Comp
L N-MOSFET Q1
U 1 1 55D6C551
P 9100 5300
F 0 "Q1" H 9110 5470 50  0000 R CNN
F 1 "SI2306" V 9300 5450 50  0000 R CNN
F 2 "TO_SOT_Packages_SMD:SOT-23" H 9100 5300 60  0001 C CNN
F 3 "" H 9100 5300 60  0000 C CNN
	1    9100 5300
	1    0    0    -1  
$EndComp
NoConn ~ 10400 1400
NoConn ~ 10400 1500
Text GLabel 8000 1500 0    60   Input ~ 0
~RESET
Connection ~ 10400 1900
$EndSCHEMATC
