(module D203B (layer F.Cu) (tedit 55DAB5A2)
  (fp_text reference REF** (at 0 -6) (layer F.SilkS)
    (effects (font (size 1.5 1.5) (thickness 0.15)))
  )
  (fp_text value D203B (at 0 6) (layer F.Fab)
    (effects (font (size 1.5 1.5) (thickness 0.15)))
  )
  (fp_circle (center -8.75 11.25) (end -8 11.25) (layer F.SilkS) (width 0.15))
  (fp_circle (center 8.75 11.25) (end 9.5 11.25) (layer F.SilkS) (width 0.15))
  (fp_circle (center 8.75 -11.25) (end 9.5 -11.25) (layer F.SilkS) (width 0.15))
  (fp_circle (center -8.75 -11.25) (end -8 -11.25) (layer F.SilkS) (width 0.15))
  (fp_line (start 11 11) (end -11 11) (layer F.SilkS) (width 0.15))
  (fp_line (start -11 11) (end -11 -11) (layer F.SilkS) (width 0.15))
  (fp_line (start -11 -11) (end 11 -11) (layer F.SilkS) (width 0.15))
  (fp_line (start 11 -11) (end 11 11) (layer F.SilkS) (width 0.15))
  (fp_circle (center 0 0) (end 11.5 0) (layer F.SilkS) (width 0.15))
  (fp_line (start -11.5 11.5) (end -11.5 -11.5) (layer F.SilkS) (width 0.15))
  (fp_line (start 11.5 -11.5) (end 11.5 11.5) (layer F.SilkS) (width 0.15))
  (fp_line (start 11.5 11.5) (end -11.5 11.5) (layer F.SilkS) (width 0.15))
  (fp_line (start -11.5 -11.5) (end 11.5 -11.5) (layer F.SilkS) (width 0.15))
  (fp_line (start -3.175 -0.635) (end -0.635 -3.175) (layer F.SilkS) (width 0.15))
  (fp_line (start 0.635 3.175) (end 3.175 0.635) (layer F.SilkS) (width 0.15))
  (fp_line (start -0.635 1.27) (end 1.27 -0.635) (layer F.SilkS) (width 0.15))
  (fp_line (start 1.27 -0.635) (end 2.54 0.635) (layer F.SilkS) (width 0.15))
  (fp_line (start 2.54 0.635) (end 0.635 2.54) (layer F.SilkS) (width 0.15))
  (fp_line (start 0.635 2.54) (end -0.635 1.27) (layer F.SilkS) (width 0.15))
  (fp_line (start -2.54 -0.635) (end -0.635 -2.54) (layer F.SilkS) (width 0.15))
  (fp_line (start -0.635 -2.54) (end 0.635 -1.27) (layer F.SilkS) (width 0.15))
  (fp_line (start 0.635 -1.27) (end -1.27 0.635) (layer F.SilkS) (width 0.15))
  (fp_line (start -1.27 0.635) (end -2.54 -0.635) (layer F.SilkS) (width 0.15))
  (fp_line (start 0.635 3.175) (end -3.175 -0.635) (layer F.SilkS) (width 0.15))
  (fp_line (start 3.175 0.635) (end -0.635 -3.175) (layer F.SilkS) (width 0.15))
  (fp_line (start 3.048 3.429) (end 3.556 3.937) (layer F.SilkS) (width 0.15))
  (fp_line (start 3.556 3.937) (end 3.937 3.556) (layer F.SilkS) (width 0.15))
  (fp_line (start 3.937 3.556) (end 3.429 3.048) (layer F.SilkS) (width 0.15))
  (fp_circle (center 0 0) (end 4.572 0) (layer F.SilkS) (width 0.15))
  (pad 1 thru_hole circle (at 2.54 0) (size 2 2) (drill 0.5) (layers *.Cu *.Mask F.SilkS))
  (pad 2 thru_hole circle (at 0 -2.54) (size 2 2) (drill 0.5) (layers *.Cu *.Mask F.SilkS))
  (pad 3 thru_hole circle (at -2.54 0) (size 2 2) (drill 0.5) (layers *.Cu *.Mask F.SilkS))
  (pad 0 thru_hole circle (at 8.75 -11.25) (size 1.5 1.5) (drill 1.5) (layers *.Cu *.Mask F.SilkS))
  (pad 0 thru_hole circle (at -8.75 -11.25) (size 1.5 1.5) (drill 1.5) (layers *.Cu *.Mask F.SilkS))
  (pad 0 thru_hole circle (at -8.75 11.25) (size 1.5 1.5) (drill 1.5) (layers *.Cu *.Mask F.SilkS))
  (pad 0 thru_hole circle (at 8.75 11.25) (size 1.5 1.5) (drill 1.5) (layers *.Cu *.Mask F.SilkS))
)
