(module ESP-12 (layer F.Cu) (tedit 55D2BC99)
  (fp_text reference REF** (at 0 0.75) (layer F.SilkS)
    (effects (font (size 1.5 1.5) (thickness 0.15)))
  )
  (fp_text value ESP-12 (at 0 -0.75) (layer F.Fab)
    (effects (font (size 1.5 1.5) (thickness 0.15)))
  )
  (fp_line (start -15.24 8.255) (end 8.89 8.255) (layer F.SilkS) (width 0.15))
  (fp_line (start 8.89 -8.255) (end -15.24 -8.255) (layer F.SilkS) (width 0.15))
  (fp_line (start 8.89 -8.255) (end 8.89 8.255) (layer F.SilkS) (width 0.15))
  (fp_line (start -15.24 8.255) (end -15.24 -8.255) (layer F.SilkS) (width 0.15))
  (pad 9 smd rect (at 7.5 -7.5) (size 1 2) (layers F.Cu F.Paste F.Mask))
  (pad 8 smd rect (at 7.5 7.5) (size 1 2) (layers F.Cu F.Paste F.Mask))
  (pad 7 smd rect (at 5.5 7.5) (size 1 2) (layers F.Cu F.Paste F.Mask))
  (pad 6 smd rect (at 3.5 7.5) (size 1 2) (layers F.Cu F.Paste F.Mask))
  (pad 5 smd rect (at 1.5 7.5) (size 1 2) (layers F.Cu F.Paste F.Mask))
  (pad 4 smd rect (at -0.5 7.5) (size 1 2) (layers F.Cu F.Paste F.Mask))
  (pad 3 smd rect (at -2.5 7.5) (size 1 2) (layers F.Cu F.Paste F.Mask))
  (pad 2 smd rect (at -4.5 7.5) (size 1 2) (layers F.Cu F.Paste F.Mask))
  (pad 1 smd rect (at -6.5 7.5) (size 1 2) (layers F.Cu F.Paste F.Mask))
  (pad 10 smd rect (at 5.5 -7.5) (size 1 2) (layers F.Cu F.Paste F.Mask))
  (pad 11 smd rect (at 3.5 -7.5) (size 1 2) (layers F.Cu F.Paste F.Mask))
  (pad 12 smd rect (at 1.5 -7.5) (size 1 2) (layers F.Cu F.Paste F.Mask))
  (pad 13 smd rect (at -0.5 -7.5) (size 1 2) (layers F.Cu F.Paste F.Mask))
  (pad 14 smd rect (at -2.5 -7.5) (size 1 2) (layers F.Cu F.Paste F.Mask))
  (pad 15 smd rect (at -4.5 -7.5) (size 1 2) (layers F.Cu F.Paste F.Mask))
  (pad 16 smd rect (at -6.5 -7.5) (size 1 2) (layers F.Cu F.Paste F.Mask))
)
